[
    {
        "name": "Bob",
        "languages": [
            "English",
            "Fench"
        ]
    },
    {
        "name": "Bob2",
        "languages": [
            "English",
            "Fench"
        ]
    },
    {
        "name": "Bob1",
        "languages": [
            "English",
            "French"
        ]
    }
]